<?xml version="1.0" encoding="UTF-8" standalone="no"?>
<!-- Created with Inkscape (http://www.inkscape.org/) -->

<svg
   width="480"
   height="1280"
   viewBox="0 0 126.99999 338.66666"
   version="1.1"
   id="svg5"
   xml:space="preserve"
   inkscape:version="1.2.2 (b0a8486541, 2022-12-01)"
   sodipodi:docname="items.svg"
   inkscape:export-filename="items.png"
   inkscape:export-xdpi="96"
   inkscape:export-ydpi="96"
   xmlns:inkscape="http://www.inkscape.org/namespaces/inkscape"
   xmlns:sodipodi="http://sodipodi.sourceforge.net/DTD/sodipodi-0.dtd"
   xmlns="http://www.w3.org/2000/svg"
   xmlns:svg="http://www.w3.org/2000/svg"><sodipodi:namedview
     id="namedview7"
     pagecolor="#ffffff"
     bordercolor="#666666"
     borderopacity="1.0"
     inkscape:showpageshadow="2"
     inkscape:pageopacity="0.0"
     inkscape:pagecheckerboard="0"
     inkscape:deskcolor="#d1d1d1"
     inkscape:document-units="mm"
     showgrid="true"
     showguides="true"
     inkscape:zoom="1.4142136"
     inkscape:cx="33.941126"
     inkscape:cy="513.35952"
     inkscape:window-width="2514"
     inkscape:window-height="1409"
     inkscape:window-x="46"
     inkscape:window-y="0"
     inkscape:window-maximized="1"
     inkscape:current-layer="layer1"><inkscape:grid
       type="xygrid"
       id="grid4487"
       originy="14.022916"
       spacingx="63.499992"
       spacingy="21.166666"
       empspacing="1" /></sodipodi:namedview><defs
     id="defs2" /><g
     inkscape:label="Layer 1"
     inkscape:groupmode="layer"
     id="layer1"><text
       xml:space="preserve"
       style="font-size:5.64444px;line-height:1.25;font-family:Figtree;-inkscape-font-specification:'Figtree Semi-Bold';stroke-width:0.264583;font-weight:600;font-style:normal;font-stretch:normal;font-variant:normal"
       x="24.341667"
       y="15.08125"
       id="text356"><tspan
         sodipodi:role="line"
         id="tspan354"
         style="stroke-width:0.264583;-inkscape-font-specification:'Figtree Semi-Bold';font-family:Figtree;font-weight:600;font-style:normal;font-stretch:normal;font-variant:normal"
         x="24.341667"
         y="15.08125" /></text><text
       xml:space="preserve"
       style="font-weight:600;font-size:9.17222px;line-height:1.25;font-family:Figtree;-inkscape-font-specification:'Figtree Semi-Bold';letter-spacing:3.96875px;stroke-width:0.264583"
       x="47.315258"
       y="56.356247"
       id="text360"><tspan
         sodipodi:role="line"
         id="tspan358"
         style="font-style:normal;font-variant:normal;font-weight:500;font-stretch:normal;font-size:9.17222px;font-family:Figtree;-inkscape-font-specification:'Figtree Medium';fill:#441111;fill-opacity:1;stroke-width:0.264583"
         x="47.315258"
         y="56.356247">Load</tspan></text><text
       xml:space="preserve"
       style="font-weight:600;font-size:9.17222px;line-height:1.25;font-family:Figtree;-inkscape-font-specification:'Figtree Semi-Bold';letter-spacing:1.32292px;stroke-width:0.264583"
       x="39.736526"
       y="35.189583"
       id="text4491"><tspan
         sodipodi:role="line"
         id="tspan4489"
         style="font-style:normal;font-variant:normal;font-weight:500;font-stretch:normal;font-size:9.17222px;font-family:Figtree;-inkscape-font-specification:'Figtree Medium';fill:#441111;fill-opacity:1;stroke-width:0.264583"
         x="39.736526"
         y="35.189583">Continue</tspan></text><text
       xml:space="preserve"
       style="font-weight:600;font-size:9.17222px;line-height:1.25;font-family:Figtree;-inkscape-font-specification:'Figtree Semi-Bold';letter-spacing:0px;stroke-width:0.264583"
       x="20.598297"
       y="14.022916"
       id="text4495"><tspan
         sodipodi:role="line"
         style="font-style:normal;font-variant:normal;font-weight:500;font-stretch:normal;font-size:9.17222px;font-family:Figtree;-inkscape-font-specification:'Figtree Medium';fill:#441111;fill-opacity:1;stroke-width:0.264583"
         x="20.598297"
         y="14.022916"
         id="tspan4497">Start from beginning</tspan></text><text
       xml:space="preserve"
       style="font-weight:600;font-size:5.64444px;line-height:1.25;font-family:Figtree;-inkscape-font-specification:'Figtree Semi-Bold';stroke-width:0.264583"
       x="63.499992"
       y="-7.4083328"
       id="text4503"><tspan
         sodipodi:role="line"
         id="tspan4501"
         style="stroke-width:0.264583"
         x="63.499992"
         y="-7.4083328" /></text><text
       xml:space="preserve"
       style="font-weight:600;font-size:9.17222px;line-height:1.25;font-family:Figtree;-inkscape-font-specification:'Figtree Semi-Bold';letter-spacing:1.32292px;stroke-width:0.264583"
       x="41.437981"
       y="77.522911"
       id="text4507"><tspan
         sodipodi:role="line"
         style="font-style:normal;font-variant:normal;font-weight:500;font-stretch:normal;font-size:9.17222px;font-family:Figtree;-inkscape-font-specification:'Figtree Medium';fill:#441111;fill-opacity:1;stroke-width:0.264583"
         x="41.437981"
         y="77.522911"
         id="tspan4509">Settings</tspan></text><text
       xml:space="preserve"
       style="font-weight:600;font-size:9.17222px;line-height:1.25;font-family:Figtree;-inkscape-font-specification:'Figtree Semi-Bold';letter-spacing:2.64583px;stroke-width:0.264583"
       x="43.796654"
       y="98.689583"
       id="text4515"><tspan
         sodipodi:role="line"
         style="font-style:normal;font-variant:normal;font-weight:500;font-stretch:normal;font-size:9.17222px;font-family:Figtree;-inkscape-font-specification:'Figtree Medium';fill:#441111;fill-opacity:1;stroke-width:0.264583"
         x="43.796654"
         y="98.689583"
         id="tspan4513">Extras</tspan></text><text
       xml:space="preserve"
       style="font-weight:600;font-size:9.17222px;line-height:1.25;font-family:Figtree;-inkscape-font-specification:'Figtree Semi-Bold';letter-spacing:0px;stroke-width:0.264583"
       x="33.011543"
       y="119.85625"
       id="text4519"><tspan
         sodipodi:role="line"
         style="font-style:normal;font-variant:normal;font-weight:500;font-stretch:normal;font-size:9.17222px;font-family:Figtree;-inkscape-font-specification:'Figtree Medium';fill:#441111;fill-opacity:1;stroke-width:0.264583"
         x="33.011543"
         y="119.85625"
         id="tspan4517">Bonus episode</tspan></text><text
       xml:space="preserve"
       style="font-weight:600;font-size:9.17222px;line-height:1.25;font-family:Figtree;-inkscape-font-specification:'Figtree Semi-Bold';letter-spacing:1.32292px;stroke-width:0.264583"
       x="34.3904"
       y="141.02292"
       id="text4523"><tspan
         sodipodi:role="line"
         style="font-style:normal;font-variant:normal;font-weight:500;font-stretch:normal;font-size:9.17222px;font-family:Figtree;-inkscape-font-specification:'Figtree Medium';fill:#441111;fill-opacity:1;stroke-width:0.264583"
         x="34.3904"
         y="141.02292"
         id="tspan4521">Cross-save</tspan></text><text
       xml:space="preserve"
       style="font-weight:600;font-size:9.17222px;line-height:1.25;font-family:Figtree;-inkscape-font-specification:'Figtree Semi-Bold';letter-spacing:2.64583px;stroke-width:0.264583"
       x="41.966782"
       y="162.18958"
       id="text4527"><tspan
         sodipodi:role="line"
         style="font-style:normal;font-variant:normal;font-weight:500;font-stretch:normal;font-size:9.17222px;font-family:Figtree;-inkscape-font-specification:'Figtree Medium';fill:#441111;fill-opacity:1;stroke-width:0.264583"
         x="41.966782"
         y="162.18958"
         id="tspan4529">Manual</tspan></text><text
       xml:space="preserve"
       style="font-weight:600;font-size:9.17222px;line-height:1.25;font-family:Figtree;-inkscape-font-specification:'Figtree Semi-Bold';letter-spacing:0px;stroke-width:0.264583"
       x="39.719173"
       y="183.35625"
       id="text4535"><tspan
         sodipodi:role="line"
         style="font-style:normal;font-variant:normal;font-weight:500;font-stretch:normal;font-size:9.17222px;font-family:Figtree;-inkscape-font-specification:'Figtree Medium';fill:#441111;fill-opacity:1;stroke-width:0.264583"
         x="39.719173"
         y="183.35625"
         id="tspan4533">Picture box</tspan></text><text
       xml:space="preserve"
       style="font-weight:600;font-size:9.17222px;line-height:1.25;font-family:Figtree;-inkscape-font-specification:'Figtree Semi-Bold';letter-spacing:1.32292px;stroke-width:0.264583"
       x="36.959034"
       y="204.5229"
       id="text4539"><tspan
         sodipodi:role="line"
         style="font-style:normal;font-variant:normal;font-weight:500;font-stretch:normal;font-size:9.17222px;font-family:Figtree;-inkscape-font-specification:'Figtree Medium';fill:#441111;fill-opacity:1;stroke-width:0.264583"
         x="36.959034"
         y="204.5229"
         id="tspan4537">Music box</tspan></text><text
       xml:space="preserve"
       style="font-weight:600;font-size:9.17222px;line-height:1.25;font-family:Figtree;-inkscape-font-specification:'Figtree Semi-Bold';letter-spacing:0px;stroke-width:0.264583"
       x="34.093384"
       y="225.68958"
       id="text4543"><tspan
         sodipodi:role="line"
         style="font-style:normal;font-variant:normal;font-weight:500;font-stretch:normal;font-size:9.17222px;font-family:Figtree;-inkscape-font-specification:'Figtree Medium';fill:#441111;fill-opacity:1;stroke-width:0.264583"
         x="34.093384"
         y="225.68958"
         id="tspan4541">Character box</tspan></text><text
       xml:space="preserve"
       style="font-weight:600;font-size:9.17222px;line-height:1.25;font-family:Figtree;-inkscape-font-specification:'Figtree Semi-Bold';letter-spacing:3.96875px;stroke-width:0.264583"
       x="47.205193"
       y="246.85625"
       id="text4547"><tspan
         sodipodi:role="line"
         id="tspan4545"
         style="font-style:normal;font-variant:normal;font-weight:500;font-stretch:normal;font-size:9.17222px;font-family:Figtree;-inkscape-font-specification:'Figtree Medium';fill:#441111;fill-opacity:1;stroke-width:0.264583"
         x="47.205193"
         y="246.85625">Back</tspan></text></g></svg>
