<?xml version="1.0" encoding="UTF-8" standalone="no"?>
<!-- Created with Inkscape (http://www.inkscape.org/) -->

<svg
   width="672"
   height="640"
   viewBox="0 0 177.8 169.33333"
   version="1.1"
   id="svg18366"
   xml:space="preserve"
   inkscape:version="1.2.2 (b0a8486541, 2022-12-01)"
   sodipodi:docname="right_text.svg"
   inkscape:export-filename="right_text.png"
   inkscape:export-xdpi="96"
   inkscape:export-ydpi="96"
   xmlns:inkscape="http://www.inkscape.org/namespaces/inkscape"
   xmlns:sodipodi="http://sodipodi.sourceforge.net/DTD/sodipodi-0.dtd"
   xmlns="http://www.w3.org/2000/svg"
   xmlns:svg="http://www.w3.org/2000/svg"><sodipodi:namedview
     id="namedview18368"
     pagecolor="#ffffff"
     bordercolor="#666666"
     borderopacity="1.0"
     inkscape:showpageshadow="2"
     inkscape:pageopacity="0.0"
     inkscape:pagecheckerboard="0"
     inkscape:deskcolor="#d1d1d1"
     inkscape:document-units="px"
     showgrid="true"
     showguides="true"
     inkscape:zoom="1.2938725"
     inkscape:cx="544.10307"
     inkscape:cy="279.0074"
     inkscape:window-width="2514"
     inkscape:window-height="1409"
     inkscape:window-x="46"
     inkscape:window-y="0"
     inkscape:window-maximized="1"
     inkscape:current-layer="layer1"><inkscape:grid
       type="xygrid"
       id="grid21178"
       originx="88.899999"
       spacingx="59.266666"
       spacingy="21.166666"
       originy="12.964583"
       empspacing="1" /></sodipodi:namedview><defs
     id="defs18363"><filter
       style="color-interpolation-filters:sRGB;"
       inkscape:label="Blur"
       id="filter28265"
       x="-0.055913465"
       y="-0.018030725"
       width="1.1118269"
       height="1.0360615"><feGaussianBlur
         stdDeviation="1 1"
         result="blur"
         id="feGaussianBlur28263" /></filter><filter
       style="color-interpolation-filters:sRGB;"
       inkscape:label="Blur"
       id="filter8837"
       x="-0.055180289"
       y="-0.015450187"
       width="1.1103606"
       height="1.0309004"><feGaussianBlur
         stdDeviation="1 1"
         result="blur"
         id="feGaussianBlur8835" /></filter></defs><g
     inkscape:label="Layer 1"
     inkscape:groupmode="layer"
     id="layer1"><text
       xml:space="preserve"
       style="font-weight:600;font-size:7.76111px;line-height:1.25;font-family:Figtree;-inkscape-font-specification:'Figtree Semi-Bold';stroke-width:0.264583"
       x="24.476078"
       y="12.964583"
       id="text1763"><tspan
         sodipodi:role="line"
         id="tspan1761"
         style="font-style:normal;font-variant:normal;font-weight:500;font-stretch:normal;font-size:7.76111px;font-family:Figtree;-inkscape-font-specification:'Figtree Medium';fill:#ccbbaa;fill-opacity:1;stroke-width:0.264583"
         x="24.476078"
         y="12.964583">On</tspan></text><text
       xml:space="preserve"
       style="font-weight:600;font-size:7.76111px;line-height:1.25;font-family:Figtree;-inkscape-font-specification:'Figtree Semi-Bold';stroke-width:0.264583"
       x="23.533108"
       y="34.131248"
       id="text2493"><tspan
         sodipodi:role="line"
         id="tspan2491"
         style="font-style:normal;font-variant:normal;font-weight:500;font-stretch:normal;font-size:7.76111px;font-family:Figtree;-inkscape-font-specification:'Figtree Medium';fill:#ccbbaa;fill-opacity:1;stroke-width:0.264583"
         x="23.533108"
         y="34.131248">Off</tspan></text><text
       xml:space="preserve"
       style="font-weight:600;font-size:7.76111px;line-height:1.25;font-family:Figtree;-inkscape-font-specification:'Figtree Semi-Bold';stroke-width:0.264583"
       x="7.7933016"
       y="55.297916"
       id="text4979"><tspan
         sodipodi:role="line"
         id="tspan4977"
         style="font-style:normal;font-variant:normal;font-weight:500;font-stretch:normal;font-size:7.76111px;font-family:Figtree;-inkscape-font-specification:'Figtree Medium';fill:#ccbbaa;fill-opacity:1;stroke-width:0.264583"
         x="7.7933016"
         y="55.297916">Two-handed</tspan></text><text
       xml:space="preserve"
       style="font-weight:600;font-size:7.76111px;line-height:1.25;font-family:Figtree;-inkscape-font-specification:'Figtree Semi-Bold';stroke-width:0.264583"
       x="7.7431154"
       y="76.464584"
       id="text4983"><tspan
         sodipodi:role="line"
         id="tspan4981"
         style="font-style:normal;font-variant:normal;font-weight:500;font-stretch:normal;font-size:7.76111px;font-family:Figtree;-inkscape-font-specification:'Figtree Medium';fill:#ccbbaa;fill-opacity:1;stroke-width:0.264583"
         x="7.7431154"
         y="76.464584">One-handed</tspan></text><text
       xml:space="preserve"
       style="font-weight:600;font-size:7.76111px;line-height:1.25;font-family:Figtree;-inkscape-font-specification:'Figtree Semi-Bold';stroke-width:0.264583"
       x="19.647633"
       y="97.631248"
       id="text4987"><tspan
         sodipodi:role="line"
         id="tspan4985"
         style="font-style:normal;font-variant:normal;font-weight:500;font-stretch:normal;font-size:7.76111px;font-family:Figtree;-inkscape-font-specification:'Figtree Medium';fill:#ccbbaa;fill-opacity:1;stroke-width:0.264583"
         x="19.647633"
         y="97.631248">Show</tspan></text><text
       xml:space="preserve"
       style="font-weight:600;font-size:7.76111px;line-height:1.25;font-family:Figtree;-inkscape-font-specification:'Figtree Semi-Bold';stroke-width:0.264583"
       x="21.142681"
       y="118.79791"
       id="text4991"><tspan
         sodipodi:role="line"
         id="tspan4989"
         style="font-style:normal;font-variant:normal;font-weight:500;font-stretch:normal;font-size:7.76111px;font-family:Figtree;-inkscape-font-specification:'Figtree Medium';fill:#ccbbaa;fill-opacity:1;stroke-width:0.264583"
         x="21.142681"
         y="118.79791">Hide</tspan></text><text
       xml:space="preserve"
       style="font-weight:600;font-size:7.76111px;line-height:1.25;font-family:Figtree;-inkscape-font-specification:'Figtree Semi-Bold';stroke-width:0.264583"
       x="17.366512"
       y="139.96458"
       id="text4995"><tspan
         sodipodi:role="line"
         id="tspan4993"
         style="font-style:normal;font-variant:normal;font-weight:500;font-stretch:normal;font-size:7.76111px;font-family:Figtree;-inkscape-font-specification:'Figtree Medium';fill:#ccbbaa;fill-opacity:1;stroke-width:0.264583"
         x="17.366512"
         y="139.96458">All text</tspan></text><text
       xml:space="preserve"
       style="font-weight:600;font-size:7.76111px;line-height:1.25;font-family:Figtree;-inkscape-font-specification:'Figtree Semi-Bold';stroke-width:0.264583"
       x="12.834398"
       y="161.13124"
       id="text4999"><tspan
         sodipodi:role="line"
         id="tspan4997"
         style="font-style:normal;font-variant:normal;font-weight:500;font-stretch:normal;font-size:7.76111px;font-family:Figtree;-inkscape-font-specification:'Figtree Medium';fill:#ccbbaa;fill-opacity:1;stroke-width:0.264583"
         x="12.834398"
         y="161.13124">Only read</tspan></text><text
       xml:space="preserve"
       style="font-weight:600;font-size:7.76111px;line-height:1.25;font-family:Figtree;-inkscape-font-specification:'Figtree Semi-Bold';stroke-width:0.264583"
       x="24.476078"
       y="12.964583"
       id="text5729"><tspan
         sodipodi:role="line"
         id="tspan5727"
         style="font-style:normal;font-variant:normal;font-weight:500;font-stretch:normal;font-size:7.76111px;font-family:Figtree;-inkscape-font-specification:'Figtree Medium';fill:#ccbbaa;fill-opacity:1;stroke-width:0.264583"
         x="24.476078"
         y="12.964583">On</tspan></text><text
       xml:space="preserve"
       style="font-weight:600;font-size:7.76111px;line-height:1.25;font-family:Figtree;-inkscape-font-specification:'Figtree Semi-Bold';stroke-width:0.264583"
       x="23.533108"
       y="34.131248"
       id="text5733"><tspan
         sodipodi:role="line"
         id="tspan5731"
         style="font-style:normal;font-variant:normal;font-weight:500;font-stretch:normal;font-size:7.76111px;font-family:Figtree;-inkscape-font-specification:'Figtree Medium';fill:#ccbbaa;fill-opacity:1;stroke-width:0.264583"
         x="23.533108"
         y="34.131248">Off</tspan></text><text
       xml:space="preserve"
       style="font-weight:600;font-size:7.76111px;line-height:1.25;font-family:Figtree;-inkscape-font-specification:'Figtree Semi-Bold';stroke-width:0.264583"
       x="7.7933016"
       y="55.297916"
       id="text5737"><tspan
         sodipodi:role="line"
         id="tspan5735"
         style="font-style:normal;font-variant:normal;font-weight:500;font-stretch:normal;font-size:7.76111px;font-family:Figtree;-inkscape-font-specification:'Figtree Medium';fill:#ccbbaa;fill-opacity:1;stroke-width:0.264583"
         x="7.7933016"
         y="55.297916">Two-handed</tspan></text><text
       xml:space="preserve"
       style="font-weight:600;font-size:7.76111px;line-height:1.25;font-family:Figtree;-inkscape-font-specification:'Figtree Semi-Bold';stroke-width:0.264583"
       x="7.7431154"
       y="76.464584"
       id="text5741"><tspan
         sodipodi:role="line"
         id="tspan5739"
         style="font-style:normal;font-variant:normal;font-weight:500;font-stretch:normal;font-size:7.76111px;font-family:Figtree;-inkscape-font-specification:'Figtree Medium';fill:#ccbbaa;fill-opacity:1;stroke-width:0.264583"
         x="7.7431154"
         y="76.464584">One-handed</tspan></text><text
       xml:space="preserve"
       style="font-weight:600;font-size:7.76111px;line-height:1.25;font-family:Figtree;-inkscape-font-specification:'Figtree Semi-Bold';stroke-width:0.264583"
       x="19.647633"
       y="97.631248"
       id="text5745"><tspan
         sodipodi:role="line"
         id="tspan5743"
         style="font-style:normal;font-variant:normal;font-weight:500;font-stretch:normal;font-size:7.76111px;font-family:Figtree;-inkscape-font-specification:'Figtree Medium';fill:#ccbbaa;fill-opacity:1;stroke-width:0.264583"
         x="19.647633"
         y="97.631248">Show</tspan></text><text
       xml:space="preserve"
       style="font-weight:600;font-size:7.76111px;line-height:1.25;font-family:Figtree;-inkscape-font-specification:'Figtree Semi-Bold';stroke-width:0.264583"
       x="21.142681"
       y="118.79791"
       id="text5749"><tspan
         sodipodi:role="line"
         id="tspan5747"
         style="font-style:normal;font-variant:normal;font-weight:500;font-stretch:normal;font-size:7.76111px;font-family:Figtree;-inkscape-font-specification:'Figtree Medium';fill:#ccbbaa;fill-opacity:1;stroke-width:0.264583"
         x="21.142681"
         y="118.79791">Hide</tspan></text><text
       xml:space="preserve"
       style="font-weight:600;font-size:7.76111px;line-height:1.25;font-family:Figtree;-inkscape-font-specification:'Figtree Semi-Bold';stroke-width:0.264583"
       x="17.366512"
       y="139.96458"
       id="text5753"><tspan
         sodipodi:role="line"
         id="tspan5751"
         style="font-style:normal;font-variant:normal;font-weight:500;font-stretch:normal;font-size:7.76111px;font-family:Figtree;-inkscape-font-specification:'Figtree Medium';fill:#ccbbaa;fill-opacity:1;stroke-width:0.264583"
         x="17.366512"
         y="139.96458">All text</tspan></text><text
       xml:space="preserve"
       style="font-weight:600;font-size:7.76111px;line-height:1.25;font-family:Figtree;-inkscape-font-specification:'Figtree Semi-Bold';stroke-width:0.264583"
       x="12.834398"
       y="161.13124"
       id="text5757"><tspan
         sodipodi:role="line"
         id="tspan5755"
         style="font-style:normal;font-variant:normal;font-weight:500;font-stretch:normal;font-size:7.76111px;font-family:Figtree;-inkscape-font-specification:'Figtree Medium';fill:#ccbbaa;fill-opacity:1;stroke-width:0.264583"
         x="12.834398"
         y="161.13124">Only read</tspan></text><text
       xml:space="preserve"
       style="font-weight:600;font-size:7.76111px;line-height:1.25;font-family:Figtree;-inkscape-font-specification:'Figtree Semi-Bold';stroke-width:0.264583"
       x="83.742744"
       y="12.964583"
       id="text5795"><tspan
         sodipodi:role="line"
         id="tspan5793"
         style="font-style:normal;font-variant:normal;font-weight:500;font-stretch:normal;font-size:7.76111px;font-family:Figtree;-inkscape-font-specification:'Figtree Medium';fill:#ccbbaa;fill-opacity:1;stroke-width:0.264583"
         x="83.742744"
         y="12.964583">On</tspan></text><text
       xml:space="preserve"
       style="font-weight:600;font-size:7.76111px;line-height:1.25;font-family:Figtree;-inkscape-font-specification:'Figtree Semi-Bold';stroke-width:0.264583"
       x="82.799774"
       y="34.131248"
       id="text5799"><tspan
         sodipodi:role="line"
         id="tspan5797"
         style="font-style:normal;font-variant:normal;font-weight:500;font-stretch:normal;font-size:7.76111px;font-family:Figtree;-inkscape-font-specification:'Figtree Medium';fill:#ccbbaa;fill-opacity:1;stroke-width:0.264583"
         x="82.799774"
         y="34.131248">Off</tspan></text><text
       xml:space="preserve"
       style="font-weight:600;font-size:7.76111px;line-height:1.25;font-family:Figtree;-inkscape-font-specification:'Figtree Semi-Bold';stroke-width:0.264583"
       x="67.059967"
       y="55.297916"
       id="text5803"><tspan
         sodipodi:role="line"
         id="tspan5801"
         style="font-style:normal;font-variant:normal;font-weight:500;font-stretch:normal;font-size:7.76111px;font-family:Figtree;-inkscape-font-specification:'Figtree Medium';fill:#ccbbaa;fill-opacity:1;stroke-width:0.264583"
         x="67.059967"
         y="55.297916">Two-handed</tspan></text><text
       xml:space="preserve"
       style="font-weight:600;font-size:7.76111px;line-height:1.25;font-family:Figtree;-inkscape-font-specification:'Figtree Semi-Bold';stroke-width:0.264583"
       x="67.009781"
       y="76.464584"
       id="text5807"><tspan
         sodipodi:role="line"
         id="tspan5805"
         style="font-style:normal;font-variant:normal;font-weight:500;font-stretch:normal;font-size:7.76111px;font-family:Figtree;-inkscape-font-specification:'Figtree Medium';fill:#ccbbaa;fill-opacity:1;stroke-width:0.264583"
         x="67.009781"
         y="76.464584">One-handed</tspan></text><text
       xml:space="preserve"
       style="font-weight:600;font-size:7.76111px;line-height:1.25;font-family:Figtree;-inkscape-font-specification:'Figtree Semi-Bold';stroke-width:0.264583"
       x="78.914299"
       y="97.631248"
       id="text5811"><tspan
         sodipodi:role="line"
         id="tspan5809"
         style="font-style:normal;font-variant:normal;font-weight:500;font-stretch:normal;font-size:7.76111px;font-family:Figtree;-inkscape-font-specification:'Figtree Medium';fill:#ccbbaa;fill-opacity:1;stroke-width:0.264583"
         x="78.914299"
         y="97.631248">Show</tspan></text><text
       xml:space="preserve"
       style="font-weight:600;font-size:7.76111px;line-height:1.25;font-family:Figtree;-inkscape-font-specification:'Figtree Semi-Bold';stroke-width:0.264583"
       x="80.409348"
       y="118.79791"
       id="text5815"><tspan
         sodipodi:role="line"
         id="tspan5813"
         style="font-style:normal;font-variant:normal;font-weight:500;font-stretch:normal;font-size:7.76111px;font-family:Figtree;-inkscape-font-specification:'Figtree Medium';fill:#ccbbaa;fill-opacity:1;stroke-width:0.264583"
         x="80.409348"
         y="118.79791">Hide</tspan></text><text
       xml:space="preserve"
       style="font-weight:600;font-size:7.76111px;line-height:1.25;font-family:Figtree;-inkscape-font-specification:'Figtree Semi-Bold';stroke-width:0.264583"
       x="76.633179"
       y="139.96458"
       id="text5819"><tspan
         sodipodi:role="line"
         id="tspan5817"
         style="font-style:normal;font-variant:normal;font-weight:500;font-stretch:normal;font-size:7.76111px;font-family:Figtree;-inkscape-font-specification:'Figtree Medium';fill:#ccbbaa;fill-opacity:1;stroke-width:0.264583"
         x="76.633179"
         y="139.96458">All text</tspan></text><text
       xml:space="preserve"
       style="font-weight:600;font-size:7.76111px;line-height:1.25;font-family:Figtree;-inkscape-font-specification:'Figtree Semi-Bold';stroke-width:0.264583"
       x="72.101067"
       y="161.13124"
       id="text5823"><tspan
         sodipodi:role="line"
         id="tspan5821"
         style="font-style:normal;font-variant:normal;font-weight:500;font-stretch:normal;font-size:7.76111px;font-family:Figtree;-inkscape-font-specification:'Figtree Medium';fill:#ccbbaa;fill-opacity:1;stroke-width:0.264583"
         x="72.101067"
         y="161.13124">Only read</tspan></text><text
       xml:space="preserve"
       style="font-weight:600;font-size:7.76111px;line-height:1.25;font-family:Figtree;-inkscape-font-specification:'Figtree Semi-Bold';stroke-width:0.264583"
       x="83.742744"
       y="12.964583"
       id="text5827"><tspan
         sodipodi:role="line"
         id="tspan5825"
         style="font-style:normal;font-variant:normal;font-weight:500;font-stretch:normal;font-size:7.76111px;font-family:Figtree;-inkscape-font-specification:'Figtree Medium';fill:#ccbbaa;fill-opacity:1;stroke-width:0.264583"
         x="83.742744"
         y="12.964583">On</tspan></text><text
       xml:space="preserve"
       style="font-weight:600;font-size:7.76111px;line-height:1.25;font-family:Figtree;-inkscape-font-specification:'Figtree Semi-Bold';stroke-width:0.264583"
       x="82.799774"
       y="34.131248"
       id="text5831"><tspan
         sodipodi:role="line"
         id="tspan5829"
         style="font-style:normal;font-variant:normal;font-weight:500;font-stretch:normal;font-size:7.76111px;font-family:Figtree;-inkscape-font-specification:'Figtree Medium';fill:#ccbbaa;fill-opacity:1;stroke-width:0.264583"
         x="82.799774"
         y="34.131248">Off</tspan></text><text
       xml:space="preserve"
       style="font-weight:600;font-size:7.76111px;line-height:1.25;font-family:Figtree;-inkscape-font-specification:'Figtree Semi-Bold';stroke-width:0.264583"
       x="67.059967"
       y="55.297916"
       id="text5835"><tspan
         sodipodi:role="line"
         id="tspan5833"
         style="font-style:normal;font-variant:normal;font-weight:500;font-stretch:normal;font-size:7.76111px;font-family:Figtree;-inkscape-font-specification:'Figtree Medium';fill:#ccbbaa;fill-opacity:1;stroke-width:0.264583"
         x="67.059967"
         y="55.297916">Two-handed</tspan></text><text
       xml:space="preserve"
       style="font-weight:600;font-size:7.76111px;line-height:1.25;font-family:Figtree;-inkscape-font-specification:'Figtree Semi-Bold';stroke-width:0.264583"
       x="67.009781"
       y="76.464584"
       id="text5839"><tspan
         sodipodi:role="line"
         id="tspan5837"
         style="font-style:normal;font-variant:normal;font-weight:500;font-stretch:normal;font-size:7.76111px;font-family:Figtree;-inkscape-font-specification:'Figtree Medium';fill:#ccbbaa;fill-opacity:1;stroke-width:0.264583"
         x="67.009781"
         y="76.464584">One-handed</tspan></text><text
       xml:space="preserve"
       style="font-weight:600;font-size:7.76111px;line-height:1.25;font-family:Figtree;-inkscape-font-specification:'Figtree Semi-Bold';stroke-width:0.264583"
       x="78.914299"
       y="97.631248"
       id="text5843"><tspan
         sodipodi:role="line"
         id="tspan5841"
         style="font-style:normal;font-variant:normal;font-weight:500;font-stretch:normal;font-size:7.76111px;font-family:Figtree;-inkscape-font-specification:'Figtree Medium';fill:#ccbbaa;fill-opacity:1;stroke-width:0.264583"
         x="78.914299"
         y="97.631248">Show</tspan></text><text
       xml:space="preserve"
       style="font-weight:600;font-size:7.76111px;line-height:1.25;font-family:Figtree;-inkscape-font-specification:'Figtree Semi-Bold';stroke-width:0.264583"
       x="80.409348"
       y="118.79791"
       id="text5847"><tspan
         sodipodi:role="line"
         id="tspan5845"
         style="font-style:normal;font-variant:normal;font-weight:500;font-stretch:normal;font-size:7.76111px;font-family:Figtree;-inkscape-font-specification:'Figtree Medium';fill:#ccbbaa;fill-opacity:1;stroke-width:0.264583"
         x="80.409348"
         y="118.79791">Hide</tspan></text><text
       xml:space="preserve"
       style="font-weight:600;font-size:7.76111px;line-height:1.25;font-family:Figtree;-inkscape-font-specification:'Figtree Semi-Bold';stroke-width:0.264583"
       x="76.633179"
       y="139.96458"
       id="text5851"><tspan
         sodipodi:role="line"
         id="tspan5849"
         style="font-style:normal;font-variant:normal;font-weight:500;font-stretch:normal;font-size:7.76111px;font-family:Figtree;-inkscape-font-specification:'Figtree Medium';fill:#ccbbaa;fill-opacity:1;stroke-width:0.264583"
         x="76.633179"
         y="139.96458">All text</tspan></text><text
       xml:space="preserve"
       style="font-weight:600;font-size:7.76111px;line-height:1.25;font-family:Figtree;-inkscape-font-specification:'Figtree Semi-Bold';stroke-width:0.264583"
       x="72.101067"
       y="161.13124"
       id="text5855"><tspan
         sodipodi:role="line"
         id="tspan5853"
         style="font-style:normal;font-variant:normal;font-weight:500;font-stretch:normal;font-size:7.76111px;font-family:Figtree;-inkscape-font-specification:'Figtree Medium';fill:#ccbbaa;fill-opacity:1;stroke-width:0.264583"
         x="72.101067"
         y="161.13124">Only read</tspan></text><g
       id="g6051"
       style="fill:#dd1100;fill-opacity:1;filter:url(#filter8837);stroke:#dd1100;stroke-opacity:1;stroke-width:0.52387499;stroke-dasharray:none"><text
         xml:space="preserve"
         style="font-weight:600;font-size:7.76111px;line-height:1.25;font-family:Figtree;-inkscape-font-specification:'Figtree Semi-Bold';stroke-width:0.52387499;fill:#dd1100;fill-opacity:1;stroke:#dd1100;stroke-opacity:1;stroke-dasharray:none"
         x="143.00941"
         y="12.964583"
         id="text5859"><tspan
           sodipodi:role="line"
           id="tspan5857"
           style="font-style:normal;font-variant:normal;font-weight:500;font-stretch:normal;font-size:7.76111px;font-family:Figtree;-inkscape-font-specification:'Figtree Medium';fill:#dd1100;fill-opacity:1;stroke-width:0.52387499;stroke:#dd1100;stroke-opacity:1;stroke-dasharray:none"
           x="143.00941"
           y="12.964583">On</tspan></text><text
         xml:space="preserve"
         style="font-weight:600;font-size:7.76111px;line-height:1.25;font-family:Figtree;-inkscape-font-specification:'Figtree Semi-Bold';stroke-width:0.52387499;fill:#dd1100;fill-opacity:1;stroke:#dd1100;stroke-opacity:1;stroke-dasharray:none"
         x="142.06645"
         y="34.131248"
         id="text5863"><tspan
           sodipodi:role="line"
           id="tspan5861"
           style="font-style:normal;font-variant:normal;font-weight:500;font-stretch:normal;font-size:7.76111px;font-family:Figtree;-inkscape-font-specification:'Figtree Medium';fill:#dd1100;fill-opacity:1;stroke-width:0.52387499;stroke:#dd1100;stroke-opacity:1;stroke-dasharray:none"
           x="142.06645"
           y="34.131248">Off</tspan></text><text
         xml:space="preserve"
         style="font-weight:600;font-size:7.76111px;line-height:1.25;font-family:Figtree;-inkscape-font-specification:'Figtree Semi-Bold';stroke-width:0.52387499;fill:#dd1100;fill-opacity:1;stroke:#dd1100;stroke-opacity:1;stroke-dasharray:none"
         x="126.32663"
         y="55.297916"
         id="text5867"><tspan
           sodipodi:role="line"
           id="tspan5865"
           style="font-style:normal;font-variant:normal;font-weight:500;font-stretch:normal;font-size:7.76111px;font-family:Figtree;-inkscape-font-specification:'Figtree Medium';fill:#dd1100;fill-opacity:1;stroke-width:0.52387499;stroke:#dd1100;stroke-opacity:1;stroke-dasharray:none"
           x="126.32663"
           y="55.297916">Two-handed</tspan></text><text
         xml:space="preserve"
         style="font-weight:600;font-size:7.76111px;line-height:1.25;font-family:Figtree;-inkscape-font-specification:'Figtree Semi-Bold';stroke-width:0.52387499;fill:#dd1100;fill-opacity:1;stroke:#dd1100;stroke-opacity:1;stroke-dasharray:none"
         x="126.27645"
         y="76.464584"
         id="text5871"><tspan
           sodipodi:role="line"
           id="tspan5869"
           style="font-style:normal;font-variant:normal;font-weight:500;font-stretch:normal;font-size:7.76111px;font-family:Figtree;-inkscape-font-specification:'Figtree Medium';fill:#dd1100;fill-opacity:1;stroke-width:0.52387499;stroke:#dd1100;stroke-opacity:1;stroke-dasharray:none"
           x="126.27645"
           y="76.464584">One-handed</tspan></text><text
         xml:space="preserve"
         style="font-weight:600;font-size:7.76111px;line-height:1.25;font-family:Figtree;-inkscape-font-specification:'Figtree Semi-Bold';stroke-width:0.52387499;fill:#dd1100;fill-opacity:1;stroke:#dd1100;stroke-opacity:1;stroke-dasharray:none"
         x="138.18097"
         y="97.631248"
         id="text5875"><tspan
           sodipodi:role="line"
           id="tspan5873"
           style="font-style:normal;font-variant:normal;font-weight:500;font-stretch:normal;font-size:7.76111px;font-family:Figtree;-inkscape-font-specification:'Figtree Medium';fill:#dd1100;fill-opacity:1;stroke-width:0.52387499;stroke:#dd1100;stroke-opacity:1;stroke-dasharray:none"
           x="138.18097"
           y="97.631248">Show</tspan></text><text
         xml:space="preserve"
         style="font-weight:600;font-size:7.76111px;line-height:1.25;font-family:Figtree;-inkscape-font-specification:'Figtree Semi-Bold';stroke-width:0.52387499;fill:#dd1100;fill-opacity:1;stroke:#dd1100;stroke-opacity:1;stroke-dasharray:none"
         x="139.67603"
         y="118.79791"
         id="text5879"><tspan
           sodipodi:role="line"
           id="tspan5877"
           style="font-style:normal;font-variant:normal;font-weight:500;font-stretch:normal;font-size:7.76111px;font-family:Figtree;-inkscape-font-specification:'Figtree Medium';fill:#dd1100;fill-opacity:1;stroke-width:0.52387499;stroke:#dd1100;stroke-opacity:1;stroke-dasharray:none"
           x="139.67603"
           y="118.79791">Hide</tspan></text><text
         xml:space="preserve"
         style="font-weight:600;font-size:7.76111px;line-height:1.25;font-family:Figtree;-inkscape-font-specification:'Figtree Semi-Bold';stroke-width:0.52387499;fill:#dd1100;fill-opacity:1;stroke:#dd1100;stroke-opacity:1;stroke-dasharray:none"
         x="135.89986"
         y="139.96458"
         id="text5883"><tspan
           sodipodi:role="line"
           id="tspan5881"
           style="font-style:normal;font-variant:normal;font-weight:500;font-stretch:normal;font-size:7.76111px;font-family:Figtree;-inkscape-font-specification:'Figtree Medium';fill:#dd1100;fill-opacity:1;stroke-width:0.52387499;stroke:#dd1100;stroke-opacity:1;stroke-dasharray:none"
           x="135.89986"
           y="139.96458">All text</tspan></text><text
         xml:space="preserve"
         style="font-weight:600;font-size:7.76111px;line-height:1.25;font-family:Figtree;-inkscape-font-specification:'Figtree Semi-Bold';stroke-width:0.52387499;fill:#dd1100;fill-opacity:1;stroke:#dd1100;stroke-opacity:1;stroke-dasharray:none"
         x="131.36774"
         y="161.13124"
         id="text5887"><tspan
           sodipodi:role="line"
           id="tspan5885"
           style="font-style:normal;font-variant:normal;font-weight:500;font-stretch:normal;font-size:7.76111px;font-family:Figtree;-inkscape-font-specification:'Figtree Medium';fill:#dd1100;fill-opacity:1;stroke-width:0.52387499;stroke:#dd1100;stroke-opacity:1;stroke-dasharray:none"
           x="131.36774"
           y="161.13124">Only read</tspan></text><text
         xml:space="preserve"
         style="font-weight:600;font-size:7.76111px;line-height:1.25;font-family:Figtree;-inkscape-font-specification:'Figtree Semi-Bold';stroke-width:0.52387499;fill:#dd1100;fill-opacity:1;stroke:#dd1100;stroke-opacity:1;stroke-dasharray:none"
         x="143.00941"
         y="12.964583"
         id="text5891"><tspan
           sodipodi:role="line"
           id="tspan5889"
           style="font-style:normal;font-variant:normal;font-weight:500;font-stretch:normal;font-size:7.76111px;font-family:Figtree;-inkscape-font-specification:'Figtree Medium';fill:#dd1100;fill-opacity:1;stroke-width:0.52387499;stroke:#dd1100;stroke-opacity:1;stroke-dasharray:none"
           x="143.00941"
           y="12.964583">On</tspan></text><text
         xml:space="preserve"
         style="font-weight:600;font-size:7.76111px;line-height:1.25;font-family:Figtree;-inkscape-font-specification:'Figtree Semi-Bold';stroke-width:0.52387499;fill:#dd1100;fill-opacity:1;stroke:#dd1100;stroke-opacity:1;stroke-dasharray:none"
         x="142.06645"
         y="34.131248"
         id="text5895"><tspan
           sodipodi:role="line"
           id="tspan5893"
           style="font-style:normal;font-variant:normal;font-weight:500;font-stretch:normal;font-size:7.76111px;font-family:Figtree;-inkscape-font-specification:'Figtree Medium';fill:#dd1100;fill-opacity:1;stroke-width:0.52387499;stroke:#dd1100;stroke-opacity:1;stroke-dasharray:none"
           x="142.06645"
           y="34.131248">Off</tspan></text><text
         xml:space="preserve"
         style="font-weight:600;font-size:7.76111px;line-height:1.25;font-family:Figtree;-inkscape-font-specification:'Figtree Semi-Bold';stroke-width:0.52387499;fill:#dd1100;fill-opacity:1;stroke:#dd1100;stroke-opacity:1;stroke-dasharray:none"
         x="126.32663"
         y="55.297916"
         id="text5899"><tspan
           sodipodi:role="line"
           id="tspan5897"
           style="font-style:normal;font-variant:normal;font-weight:500;font-stretch:normal;font-size:7.76111px;font-family:Figtree;-inkscape-font-specification:'Figtree Medium';fill:#dd1100;fill-opacity:1;stroke-width:0.52387499;stroke:#dd1100;stroke-opacity:1;stroke-dasharray:none"
           x="126.32663"
           y="55.297916">Two-handed</tspan></text><text
         xml:space="preserve"
         style="font-weight:600;font-size:7.76111px;line-height:1.25;font-family:Figtree;-inkscape-font-specification:'Figtree Semi-Bold';stroke-width:0.52387499;fill:#dd1100;fill-opacity:1;stroke:#dd1100;stroke-opacity:1;stroke-dasharray:none"
         x="126.27645"
         y="76.464584"
         id="text5903"><tspan
           sodipodi:role="line"
           id="tspan5901"
           style="font-style:normal;font-variant:normal;font-weight:500;font-stretch:normal;font-size:7.76111px;font-family:Figtree;-inkscape-font-specification:'Figtree Medium';fill:#dd1100;fill-opacity:1;stroke-width:0.52387499;stroke:#dd1100;stroke-opacity:1;stroke-dasharray:none"
           x="126.27645"
           y="76.464584">One-handed</tspan></text><text
         xml:space="preserve"
         style="font-weight:600;font-size:7.76111px;line-height:1.25;font-family:Figtree;-inkscape-font-specification:'Figtree Semi-Bold';stroke-width:0.52387499;fill:#dd1100;fill-opacity:1;stroke:#dd1100;stroke-opacity:1;stroke-dasharray:none"
         x="138.18097"
         y="97.631248"
         id="text5907"><tspan
           sodipodi:role="line"
           id="tspan5905"
           style="font-style:normal;font-variant:normal;font-weight:500;font-stretch:normal;font-size:7.76111px;font-family:Figtree;-inkscape-font-specification:'Figtree Medium';fill:#dd1100;fill-opacity:1;stroke-width:0.52387499;stroke:#dd1100;stroke-opacity:1;stroke-dasharray:none"
           x="138.18097"
           y="97.631248">Show</tspan></text><text
         xml:space="preserve"
         style="font-weight:600;font-size:7.76111px;line-height:1.25;font-family:Figtree;-inkscape-font-specification:'Figtree Semi-Bold';stroke-width:0.52387499;fill:#dd1100;fill-opacity:1;stroke:#dd1100;stroke-opacity:1;stroke-dasharray:none"
         x="139.67603"
         y="118.79791"
         id="text5911"><tspan
           sodipodi:role="line"
           id="tspan5909"
           style="font-style:normal;font-variant:normal;font-weight:500;font-stretch:normal;font-size:7.76111px;font-family:Figtree;-inkscape-font-specification:'Figtree Medium';fill:#dd1100;fill-opacity:1;stroke-width:0.52387499;stroke:#dd1100;stroke-opacity:1;stroke-dasharray:none"
           x="139.67603"
           y="118.79791">Hide</tspan></text><text
         xml:space="preserve"
         style="font-weight:600;font-size:7.76111px;line-height:1.25;font-family:Figtree;-inkscape-font-specification:'Figtree Semi-Bold';stroke-width:0.52387499;fill:#dd1100;fill-opacity:1;stroke:#dd1100;stroke-opacity:1;stroke-dasharray:none"
         x="135.89986"
         y="139.96458"
         id="text5915"><tspan
           sodipodi:role="line"
           id="tspan5913"
           style="font-style:normal;font-variant:normal;font-weight:500;font-stretch:normal;font-size:7.76111px;font-family:Figtree;-inkscape-font-specification:'Figtree Medium';fill:#dd1100;fill-opacity:1;stroke-width:0.52387499;stroke:#dd1100;stroke-opacity:1;stroke-dasharray:none"
           x="135.89986"
           y="139.96458">All text</tspan></text><text
         xml:space="preserve"
         style="font-weight:600;font-size:7.76111px;line-height:1.25;font-family:Figtree;-inkscape-font-specification:'Figtree Semi-Bold';stroke-width:0.52387499;fill:#dd1100;fill-opacity:1;stroke:#dd1100;stroke-opacity:1;stroke-dasharray:none"
         x="131.36774"
         y="161.13124"
         id="text5919"><tspan
           sodipodi:role="line"
           id="tspan5917"
           style="font-style:normal;font-variant:normal;font-weight:500;font-stretch:normal;font-size:7.76111px;font-family:Figtree;-inkscape-font-specification:'Figtree Medium';fill:#dd1100;fill-opacity:1;stroke-width:0.52387499;stroke:#dd1100;stroke-opacity:1;stroke-dasharray:none"
           x="131.36774"
           y="161.13124">Only read</tspan></text></g><g
       id="g6117"
       style="fill:#ffffff;fill-opacity:1"><text
         xml:space="preserve"
         style="font-weight:600;font-size:7.76111px;line-height:1.25;font-family:Figtree;-inkscape-font-specification:'Figtree Semi-Bold';stroke-width:0.264583;fill:#ffffff;fill-opacity:1"
         x="143.00941"
         y="12.964583"
         id="text6055"><tspan
           sodipodi:role="line"
           id="tspan6053"
           style="font-style:normal;font-variant:normal;font-weight:500;font-stretch:normal;font-size:7.76111px;font-family:Figtree;-inkscape-font-specification:'Figtree Medium';fill:#ffffff;fill-opacity:1;stroke-width:0.264583"
           x="143.00941"
           y="12.964583">On</tspan></text><text
         xml:space="preserve"
         style="font-weight:600;font-size:7.76111px;line-height:1.25;font-family:Figtree;-inkscape-font-specification:'Figtree Semi-Bold';stroke-width:0.264583;fill:#ffffff;fill-opacity:1"
         x="142.06645"
         y="34.131248"
         id="text6059"><tspan
           sodipodi:role="line"
           id="tspan6057"
           style="font-style:normal;font-variant:normal;font-weight:500;font-stretch:normal;font-size:7.76111px;font-family:Figtree;-inkscape-font-specification:'Figtree Medium';fill:#ffffff;fill-opacity:1;stroke-width:0.264583"
           x="142.06645"
           y="34.131248">Off</tspan></text><text
         xml:space="preserve"
         style="font-weight:600;font-size:7.76111px;line-height:1.25;font-family:Figtree;-inkscape-font-specification:'Figtree Semi-Bold';stroke-width:0.264583;fill:#ffffff;fill-opacity:1"
         x="126.32663"
         y="55.297916"
         id="text6063"><tspan
           sodipodi:role="line"
           id="tspan6061"
           style="font-style:normal;font-variant:normal;font-weight:500;font-stretch:normal;font-size:7.76111px;font-family:Figtree;-inkscape-font-specification:'Figtree Medium';fill:#ffffff;fill-opacity:1;stroke-width:0.264583"
           x="126.32663"
           y="55.297916">Two-handed</tspan></text><text
         xml:space="preserve"
         style="font-weight:600;font-size:7.76111px;line-height:1.25;font-family:Figtree;-inkscape-font-specification:'Figtree Semi-Bold';stroke-width:0.264583;fill:#ffffff;fill-opacity:1"
         x="126.27645"
         y="76.464584"
         id="text6067"><tspan
           sodipodi:role="line"
           id="tspan6065"
           style="font-style:normal;font-variant:normal;font-weight:500;font-stretch:normal;font-size:7.76111px;font-family:Figtree;-inkscape-font-specification:'Figtree Medium';fill:#ffffff;fill-opacity:1;stroke-width:0.264583"
           x="126.27645"
           y="76.464584">One-handed</tspan></text><text
         xml:space="preserve"
         style="font-weight:600;font-size:7.76111px;line-height:1.25;font-family:Figtree;-inkscape-font-specification:'Figtree Semi-Bold';stroke-width:0.264583;fill:#ffffff;fill-opacity:1"
         x="138.18097"
         y="97.631248"
         id="text6071"><tspan
           sodipodi:role="line"
           id="tspan6069"
           style="font-style:normal;font-variant:normal;font-weight:500;font-stretch:normal;font-size:7.76111px;font-family:Figtree;-inkscape-font-specification:'Figtree Medium';fill:#ffffff;fill-opacity:1;stroke-width:0.264583"
           x="138.18097"
           y="97.631248">Show</tspan></text><text
         xml:space="preserve"
         style="font-weight:600;font-size:7.76111px;line-height:1.25;font-family:Figtree;-inkscape-font-specification:'Figtree Semi-Bold';stroke-width:0.264583;fill:#ffffff;fill-opacity:1"
         x="139.67603"
         y="118.79791"
         id="text6075"><tspan
           sodipodi:role="line"
           id="tspan6073"
           style="font-style:normal;font-variant:normal;font-weight:500;font-stretch:normal;font-size:7.76111px;font-family:Figtree;-inkscape-font-specification:'Figtree Medium';fill:#ffffff;fill-opacity:1;stroke-width:0.264583"
           x="139.67603"
           y="118.79791">Hide</tspan></text><text
         xml:space="preserve"
         style="font-weight:600;font-size:7.76111px;line-height:1.25;font-family:Figtree;-inkscape-font-specification:'Figtree Semi-Bold';stroke-width:0.264583;fill:#ffffff;fill-opacity:1"
         x="135.89986"
         y="139.96458"
         id="text6079"><tspan
           sodipodi:role="line"
           id="tspan6077"
           style="font-style:normal;font-variant:normal;font-weight:500;font-stretch:normal;font-size:7.76111px;font-family:Figtree;-inkscape-font-specification:'Figtree Medium';fill:#ffffff;fill-opacity:1;stroke-width:0.264583"
           x="135.89986"
           y="139.96458">All text</tspan></text><text
         xml:space="preserve"
         style="font-weight:600;font-size:7.76111px;line-height:1.25;font-family:Figtree;-inkscape-font-specification:'Figtree Semi-Bold';stroke-width:0.264583;fill:#ffffff;fill-opacity:1"
         x="131.36774"
         y="161.13124"
         id="text6083"><tspan
           sodipodi:role="line"
           id="tspan6081"
           style="font-style:normal;font-variant:normal;font-weight:500;font-stretch:normal;font-size:7.76111px;font-family:Figtree;-inkscape-font-specification:'Figtree Medium';fill:#ffffff;fill-opacity:1;stroke-width:0.264583"
           x="131.36774"
           y="161.13124">Only read</tspan></text><text
         xml:space="preserve"
         style="font-weight:600;font-size:7.76111px;line-height:1.25;font-family:Figtree;-inkscape-font-specification:'Figtree Semi-Bold';stroke-width:0.264583;fill:#ffffff;fill-opacity:1"
         x="143.00941"
         y="12.964583"
         id="text6087"><tspan
           sodipodi:role="line"
           id="tspan6085"
           style="font-style:normal;font-variant:normal;font-weight:500;font-stretch:normal;font-size:7.76111px;font-family:Figtree;-inkscape-font-specification:'Figtree Medium';fill:#ffffff;fill-opacity:1;stroke-width:0.264583"
           x="143.00941"
           y="12.964583">On</tspan></text><text
         xml:space="preserve"
         style="font-weight:600;font-size:7.76111px;line-height:1.25;font-family:Figtree;-inkscape-font-specification:'Figtree Semi-Bold';stroke-width:0.264583;fill:#ffffff;fill-opacity:1"
         x="142.06645"
         y="34.131248"
         id="text6091"><tspan
           sodipodi:role="line"
           id="tspan6089"
           style="font-style:normal;font-variant:normal;font-weight:500;font-stretch:normal;font-size:7.76111px;font-family:Figtree;-inkscape-font-specification:'Figtree Medium';fill:#ffffff;fill-opacity:1;stroke-width:0.264583"
           x="142.06645"
           y="34.131248">Off</tspan></text><text
         xml:space="preserve"
         style="font-weight:600;font-size:7.76111px;line-height:1.25;font-family:Figtree;-inkscape-font-specification:'Figtree Semi-Bold';stroke-width:0.264583;fill:#ffffff;fill-opacity:1"
         x="126.32663"
         y="55.297916"
         id="text6095"><tspan
           sodipodi:role="line"
           id="tspan6093"
           style="font-style:normal;font-variant:normal;font-weight:500;font-stretch:normal;font-size:7.76111px;font-family:Figtree;-inkscape-font-specification:'Figtree Medium';fill:#ffffff;fill-opacity:1;stroke-width:0.264583"
           x="126.32663"
           y="55.297916">Two-handed</tspan></text><text
         xml:space="preserve"
         style="font-weight:600;font-size:7.76111px;line-height:1.25;font-family:Figtree;-inkscape-font-specification:'Figtree Semi-Bold';stroke-width:0.264583;fill:#ffffff;fill-opacity:1"
         x="126.27645"
         y="76.464584"
         id="text6099"><tspan
           sodipodi:role="line"
           id="tspan6097"
           style="font-style:normal;font-variant:normal;font-weight:500;font-stretch:normal;font-size:7.76111px;font-family:Figtree;-inkscape-font-specification:'Figtree Medium';fill:#ffffff;fill-opacity:1;stroke-width:0.264583"
           x="126.27645"
           y="76.464584">One-handed</tspan></text><text
         xml:space="preserve"
         style="font-weight:600;font-size:7.76111px;line-height:1.25;font-family:Figtree;-inkscape-font-specification:'Figtree Semi-Bold';stroke-width:0.264583;fill:#ffffff;fill-opacity:1"
         x="138.18097"
         y="97.631248"
         id="text6103"><tspan
           sodipodi:role="line"
           id="tspan6101"
           style="font-style:normal;font-variant:normal;font-weight:500;font-stretch:normal;font-size:7.76111px;font-family:Figtree;-inkscape-font-specification:'Figtree Medium';fill:#ffffff;fill-opacity:1;stroke-width:0.264583"
           x="138.18097"
           y="97.631248">Show</tspan></text><text
         xml:space="preserve"
         style="font-weight:600;font-size:7.76111px;line-height:1.25;font-family:Figtree;-inkscape-font-specification:'Figtree Semi-Bold';stroke-width:0.264583;fill:#ffffff;fill-opacity:1"
         x="139.67603"
         y="118.79791"
         id="text6107"><tspan
           sodipodi:role="line"
           id="tspan6105"
           style="font-style:normal;font-variant:normal;font-weight:500;font-stretch:normal;font-size:7.76111px;font-family:Figtree;-inkscape-font-specification:'Figtree Medium';fill:#ffffff;fill-opacity:1;stroke-width:0.264583"
           x="139.67603"
           y="118.79791">Hide</tspan></text><text
         xml:space="preserve"
         style="font-weight:600;font-size:7.76111px;line-height:1.25;font-family:Figtree;-inkscape-font-specification:'Figtree Semi-Bold';stroke-width:0.264583;fill:#ffffff;fill-opacity:1"
         x="135.89986"
         y="139.96458"
         id="text6111"><tspan
           sodipodi:role="line"
           id="tspan6109"
           style="font-style:normal;font-variant:normal;font-weight:500;font-stretch:normal;font-size:7.76111px;font-family:Figtree;-inkscape-font-specification:'Figtree Medium';fill:#ffffff;fill-opacity:1;stroke-width:0.264583"
           x="135.89986"
           y="139.96458">All text</tspan></text><text
         xml:space="preserve"
         style="font-weight:600;font-size:7.76111px;line-height:1.25;font-family:Figtree;-inkscape-font-specification:'Figtree Semi-Bold';stroke-width:0.264583;fill:#ffffff;fill-opacity:1"
         x="131.36774"
         y="161.13124"
         id="text6115"><tspan
           sodipodi:role="line"
           id="tspan6113"
           style="font-style:normal;font-variant:normal;font-weight:500;font-stretch:normal;font-size:7.76111px;font-family:Figtree;-inkscape-font-specification:'Figtree Medium';fill:#ffffff;fill-opacity:1;stroke-width:0.264583"
           x="131.36774"
           y="161.13124">Only read</tspan></text></g></g></svg>
