<?xml version="1.0" encoding="UTF-8" standalone="no"?>
<!-- Created with Inkscape (http://www.inkscape.org/) -->

<svg
   width="544"
   height="192"
   viewBox="0 0 143.93333 50.8"
   version="1.1"
   id="svg21935"
   xml:space="preserve"
   sodipodi:docname="load.svg"
   inkscape:version="1.2.2 (b0a8486541, 2022-12-01)"
   inkscape:export-filename="load.png"
   inkscape:export-xdpi="96"
   inkscape:export-ydpi="96"
   xmlns:inkscape="http://www.inkscape.org/namespaces/inkscape"
   xmlns:sodipodi="http://sodipodi.sourceforge.net/DTD/sodipodi-0.dtd"
   xmlns="http://www.w3.org/2000/svg"
   xmlns:svg="http://www.w3.org/2000/svg"><sodipodi:namedview
     id="namedview21937"
     pagecolor="#ffffff"
     bordercolor="#666666"
     borderopacity="1.0"
     inkscape:showpageshadow="2"
     inkscape:pageopacity="0.0"
     inkscape:pagecheckerboard="0"
     inkscape:deskcolor="#d1d1d1"
     inkscape:document-units="px"
     showgrid="false"
     showguides="true"
     inkscape:zoom="1.4834559"
     inkscape:cx="223.80173"
     inkscape:cy="56.624535"
     inkscape:window-width="2514"
     inkscape:window-height="1409"
     inkscape:window-x="46"
     inkscape:window-y="0"
     inkscape:window-maximized="1"
     inkscape:current-layer="layer1"><sodipodi:guide
       position="22.26777,24.555842"
       orientation="0,-1"
       id="guide22068"
       inkscape:locked="false" /><sodipodi:guide
       position="22.26777,24.555842"
       orientation="1,0"
       id="guide22070"
       inkscape:locked="false" /></sodipodi:namedview><defs
     id="defs21932" /><g
     inkscape:label="Layer 1"
     inkscape:groupmode="layer"
     id="layer1"><text
       xml:space="preserve"
       style="font-size:14.1111px;line-height:1.25;font-family:'Libre Baskerville';-inkscape-font-specification:'Libre Baskerville';stroke-width:0.264583"
       x="36.092697"
       y="26.244156"
       id="text22074"><tspan
         sodipodi:role="line"
         id="tspan22072"
         style="font-style:normal;font-variant:normal;font-weight:normal;font-stretch:normal;font-size:14.1111px;font-family:Newsreader;-inkscape-font-specification:Newsreader;stroke-width:0.264583"
         x="36.092697"
         y="26.244156">Load menu</tspan></text></g></svg>
