<?xml version="1.0" encoding="UTF-8" standalone="no"?>
<!-- Created with Inkscape (http://www.inkscape.org/) -->

<svg
   width="742"
   height="148"
   viewBox="0 0 196.32083 39.158333"
   version="1.1"
   id="svg5"
   xml:space="preserve"
   inkscape:version="1.2.2 (b0a8486541, 2022-12-01)"
   sodipodi:docname="tg_intz02_08_全員.svg"
   inkscape:export-filename="../raster/tg_intz02_08_全員.png"
   inkscape:export-xdpi="96"
   inkscape:export-ydpi="96"
   xmlns:inkscape="http://www.inkscape.org/namespaces/inkscape"
   xmlns:sodipodi="http://sodipodi.sourceforge.net/DTD/sodipodi-0.dtd"
   xmlns="http://www.w3.org/2000/svg"
   xmlns:svg="http://www.w3.org/2000/svg"><sodipodi:namedview
     id="namedview7"
     pagecolor="#ffffff"
     bordercolor="#666666"
     borderopacity="1.0"
     inkscape:showpageshadow="2"
     inkscape:pageopacity="0.0"
     inkscape:pagecheckerboard="0"
     inkscape:deskcolor="#d1d1d1"
     inkscape:document-units="mm"
     showgrid="false"
     inkscape:zoom="1.829812"
     inkscape:cx="84.708156"
     inkscape:cy="82.522139"
     inkscape:window-width="2514"
     inkscape:window-height="1409"
     inkscape:window-x="46"
     inkscape:window-y="0"
     inkscape:window-maximized="1"
     inkscape:current-layer="layer1" /><defs
     id="defs2"><filter
       style="color-interpolation-filters:sRGB"
       inkscape:label="Blur"
       id="filter4071"
       x="-0.025557728"
       y="-0.12913485"
       width="1.0511155"
       height="1.2582697"><feGaussianBlur
         stdDeviation="2.7000000000000002 2.7000000000000002"
         result="blur"
         id="feGaussianBlur4069" /></filter><filter
       style="color-interpolation-filters:sRGB;"
       inkscape:label="Blur"
       id="filter1840"
       x="-0.049722032"
       y="-0.45677431"
       width="1.0994441"
       height="1.9135486"><feGaussianBlur
         stdDeviation="2.7 2.7"
         result="blur"
         id="feGaussianBlur1838" /></filter></defs><g
     inkscape:label="Layer 1"
     inkscape:groupmode="layer"
     id="layer1"><text
       xml:space="preserve"
       style="font-weight:bold;font-size:25.4px;line-height:1.25;font-family:'Shantell Sans';-inkscape-font-specification:'Shantell Sans Bold';fill:#ff6d00;fill-opacity:1;stroke:#ff8b00;stroke-width:5;stroke-linejoin:round;stroke-dasharray:none;stroke-opacity:0.237052;paint-order:stroke fill markers;filter:url(#filter1840)"
       x="98.081398"
       y="26.948006"
       id="text3696"
       clip-path="none"
       mask="none"><tspan
         sodipodi:role="line"
         style="font-style:normal;font-variant:normal;font-weight:600;font-stretch:normal;font-size:25.4px;font-family:'Shantell Sans';-inkscape-font-specification:'Shantell Sans Semi-Bold';text-align:center;text-anchor:middle;fill:#ff6d00;fill-opacity:1;stroke:#ff8b00;stroke-width:5;stroke-linejoin:round;stroke-dasharray:none;stroke-opacity:0.237052;paint-order:stroke fill markers"
         x="98.081398"
         y="26.948006"
         id="tspan418">Kuu-chan......!!!</tspan></text><text
       xml:space="preserve"
       style="font-weight:bold;font-size:25.4px;line-height:1.25;font-family:'Shantell Sans';-inkscape-font-specification:'Shantell Sans Bold';fill:#ff8163;fill-opacity:1;stroke:#ffffff;stroke-width:5;stroke-linecap:butt;stroke-linejoin:round;stroke-dasharray:none;stroke-opacity:1;paint-order:stroke fill markers"
       x="98.081398"
       y="26.948006"
       id="text241"><tspan
         sodipodi:role="line"
         style="font-style:normal;font-variant:normal;font-weight:600;font-stretch:normal;font-size:25.4px;font-family:'Shantell Sans';-inkscape-font-specification:'Shantell Sans Semi-Bold';text-align:center;text-anchor:middle;fill:#ff8163;fill-opacity:1;stroke:#ffffff;stroke-width:5;stroke-linecap:butt;stroke-linejoin:round;stroke-dasharray:none;stroke-opacity:1;paint-order:stroke fill markers"
         x="98.081398"
         y="26.948006"
         id="tspan408">Kuu-chan......!!!</tspan></text></g></svg>
