<?xml version="1.0" encoding="UTF-8" standalone="no"?>
<!-- Created with Inkscape (http://www.inkscape.org/) -->

<svg
   width="144"
   height="192"
   viewBox="0 0 38.100001 50.8"
   version="1.1"
   id="svg3474"
   inkscape:version="1.2.2 (b0a8486541, 2022-12-01)"
   sodipodi:docname="bupmode_text.svg"
   xml:space="preserve"
   inkscape:export-filename="bupmode_text.png"
   inkscape:export-xdpi="96"
   inkscape:export-ydpi="96"
   xmlns:inkscape="http://www.inkscape.org/namespaces/inkscape"
   xmlns:sodipodi="http://sodipodi.sourceforge.net/DTD/sodipodi-0.dtd"
   xmlns="http://www.w3.org/2000/svg"
   xmlns:svg="http://www.w3.org/2000/svg"><sodipodi:namedview
     id="namedview3476"
     pagecolor="#ffffff"
     bordercolor="#666666"
     borderopacity="1.0"
     inkscape:showpageshadow="2"
     inkscape:pageopacity="0.0"
     inkscape:pagecheckerboard="0"
     inkscape:deskcolor="#d1d1d1"
     inkscape:document-units="px"
     showgrid="true"
     inkscape:zoom="7.319248"
     inkscape:cx="101.92304"
     inkscape:cy="47.409242"
     inkscape:window-width="2514"
     inkscape:window-height="1409"
     inkscape:window-x="46"
     inkscape:window-y="0"
     inkscape:window-maximized="1"
     inkscape:current-layer="layer1"
     showguides="true"><inkscape:grid
       type="xygrid"
       id="grid3595"
       spacingx="38.100001"
       spacingy="8.4666668"
       originx="19.05"
       originy="5.8208334" /><inkscape:grid
       type="xygrid"
       id="grid7209"
       empspacing="1"
       spacingx="38.100001"
       spacingy="8.4666668" /></sodipodi:namedview><defs
     id="defs3471" /><g
     inkscape:label="Layer 1"
     inkscape:groupmode="layer"
     id="layer1"><text
       xml:space="preserve"
       style="font-weight:600;font-size:7.05556px;line-height:1.25;font-family:Figtree;-inkscape-font-specification:'Figtree Semi-Bold';fill:#ffffff;fill-opacity:1;stroke:#000000;stroke-width:1.05833;stroke-dasharray:none;stroke-opacity:1;paint-order:stroke fill markers"
       x="19.049999"
       y="5.8208332"
       id="text7207"><tspan
         sodipodi:role="line"
         id="tspan7205"
         style="font-style:normal;font-variant:normal;font-weight:normal;font-stretch:normal;font-size:7.05556px;font-family:'Patrick Hand';-inkscape-font-specification:'Patrick Hand';text-align:center;text-anchor:middle;fill:#ffffff;fill-opacity:1;stroke:#000000;stroke-width:1.05833;stroke-dasharray:none;stroke-opacity:1;paint-order:stroke fill markers"
         x="19.049999"
         y="5.8208332">Character</tspan></text><text
       xml:space="preserve"
       style="font-weight:600;font-size:7.05556px;line-height:1.25;font-family:Figtree;-inkscape-font-specification:'Figtree Semi-Bold';fill:#ffffff;fill-opacity:1;stroke:#000000;stroke-width:1.05833;stroke-dasharray:none;stroke-opacity:1;paint-order:stroke fill markers"
       x="19.049999"
       y="14.2875"
       id="text7576"><tspan
         sodipodi:role="line"
         id="tspan7574"
         style="font-style:normal;font-variant:normal;font-weight:normal;font-stretch:normal;font-size:7.05556px;font-family:'Patrick Hand';-inkscape-font-specification:'Patrick Hand';text-align:center;text-anchor:middle;fill:#ffffff;fill-opacity:1;stroke:#000000;stroke-width:1.05833;stroke-dasharray:none;stroke-opacity:1;paint-order:stroke fill markers"
         x="19.049999"
         y="14.2875">Size</tspan></text><text
       xml:space="preserve"
       style="font-weight:600;font-size:7.05556px;line-height:1.25;font-family:Figtree;-inkscape-font-specification:'Figtree Semi-Bold';fill:#ffffff;fill-opacity:1;stroke:#000000;stroke-width:1.05833;stroke-dasharray:none;stroke-opacity:1;paint-order:stroke fill markers"
       x="19.049999"
       y="22.754168"
       id="text7580"><tspan
         sodipodi:role="line"
         id="tspan7578"
         style="font-style:normal;font-variant:normal;font-weight:normal;font-stretch:normal;font-size:7.05556px;font-family:'Patrick Hand';-inkscape-font-specification:'Patrick Hand';text-align:center;text-anchor:middle;fill:#ffffff;fill-opacity:1;stroke:#000000;stroke-width:1.05833;stroke-dasharray:none;stroke-opacity:1;paint-order:stroke fill markers"
         x="19.049999"
         y="22.754168">Outfit</tspan></text><text
       xml:space="preserve"
       style="font-weight:600;font-size:7.05556px;line-height:1.25;font-family:Figtree;-inkscape-font-specification:'Figtree Semi-Bold';fill:#ffffff;fill-opacity:1;stroke:#000000;stroke-width:1.05833;stroke-dasharray:none;stroke-opacity:1;paint-order:stroke fill markers"
       x="19.049999"
       y="31.220835"
       id="text7588"><tspan
         sodipodi:role="line"
         id="tspan7586"
         style="font-style:normal;font-variant:normal;font-weight:normal;font-stretch:normal;font-size:7.05556px;font-family:'Patrick Hand';-inkscape-font-specification:'Patrick Hand';text-align:center;text-anchor:middle;fill:#ffffff;fill-opacity:1;stroke:#000000;stroke-width:1.05833;stroke-dasharray:none;stroke-opacity:1;paint-order:stroke fill markers"
         x="19.049999"
         y="31.220835">Pose</tspan></text><text
       xml:space="preserve"
       style="font-weight:600;font-size:7.05556px;line-height:1.25;font-family:Figtree;-inkscape-font-specification:'Figtree Semi-Bold';fill:#ffffff;fill-opacity:1;stroke:#000000;stroke-width:1.05833;stroke-dasharray:none;stroke-opacity:1;paint-order:stroke fill markers"
       x="19.049999"
       y="39.579056"
       id="text7592"><tspan
         sodipodi:role="line"
         id="tspan7590"
         style="font-style:normal;font-variant:normal;font-weight:normal;font-stretch:normal;font-size:7.05556px;font-family:'Patrick Hand';-inkscape-font-specification:'Patrick Hand';text-align:center;text-anchor:middle;fill:#ffffff;fill-opacity:1;stroke:#000000;stroke-width:1.05833;stroke-dasharray:none;stroke-opacity:1;paint-order:stroke fill markers"
         x="19.049999"
         y="39.579056">Expression</tspan></text><text
       xml:space="preserve"
       style="font-weight:600;font-size:7.05556px;line-height:1.25;font-family:Figtree;-inkscape-font-specification:'Figtree Semi-Bold';fill:#ffffff;fill-opacity:1;stroke:#000000;stroke-width:1.05833;stroke-dasharray:none;stroke-opacity:1;paint-order:stroke fill markers"
       x="19.050001"
       y="48.009575"
       id="text7596"><tspan
         sodipodi:role="line"
         id="tspan7594"
         style="font-style:normal;font-variant:normal;font-weight:normal;font-stretch:normal;font-size:7.05556px;font-family:'Patrick Hand';-inkscape-font-specification:'Patrick Hand';text-align:center;text-anchor:middle;fill:#ffffff;fill-opacity:1;stroke:#000000;stroke-width:1.05833;stroke-dasharray:none;stroke-opacity:1;paint-order:stroke fill markers"
         x="19.050001"
         y="48.009575">Background</tspan></text></g></svg>
